<?xml version="1.0" encoding="utf-8"?>
<!-- Generator: Adobe Illustrator 22.1.0, SVG Export Plug-In . SVG Version: 6.00 Build 0)  -->
<svg version="1.1" id="Layer_1" xmlns="http://www.w3.org/2000/svg" xmlns:xlink="http://www.w3.org/1999/xlink" x="0px" y="0px"
	 viewBox="0 0 24 24" style="enable-background:new 0 0 24 24;" xml:space="preserve">
<path d="M8,5H4V2h4V5z M4,22h4v-3H4V22z M14,2h-4v3h4V2z M10,22h4v-3h-4V22z M16,2v3h4V2H16z M17,11h-4V7h-2v4H7V7H5v10h2v-4h4v4h2
	v-4h6V7h-2V11z"/>
</svg>
